<svg xmlns="http://www.w3.org/2000/svg" viewBox="0 0 8.545 16.272">
  <defs>
    <style>
      .cls-1 {
        fill: none;
      }

      .cls-1, .cls-2 {
        stroke: #ff700c;
        stroke-linecap: round;
        stroke-linejoin: round;
        stroke-miterlimit: 10;
        stroke-width: 2px;
      }

      .cls-2 {
        fill: #ff700c;
      }
    </style>
  </defs>
  <g id="Symbol_65_2" data-name="Symbol 65 – 2" transform="translate(-8.727 -4.364)">
    <line id="Line_1323" data-name="Line 1323" class="cls-1" x2="6.545" transform="translate(9.727 19.636)"/>
    <path id="Path_12036" data-name="Path 12036" class="cls-1" d="M19,19h2.182v9.273" transform="translate(-8.182 -9.182)"/>
    <circle id="Ellipse_1805" data-name="Ellipse 1805" class="cls-2" cx="0.545" cy="0.545" r="0.545" transform="translate(11.909 5.364)"/>
  </g>
</svg>
